Final Presentation
…
---

###Did overall news organization sentiment go up or down over the sampled period?

```
## # A tibble: 107 x 3
## # Groups:   publisher [9]
##    publisher month mean_polarity
##    <chr>     <fct>         <dbl>
##  1 Atlantic  1            0.108 
##  2 Atlantic  2            0.0852
##  3 Atlantic  3            0.120 
##  4 Atlantic  4            0.0711
##  5 Atlantic  5            0.112 
##  6 Atlantic  6            0.125 
##  7 Atlantic  7            0.0709
##  8 Atlantic  8            0.146 
##  9 Atlantic  9            0.101 
## 10 Atlantic  10           0.116 
## # ... with 97 more rows
```
…
---

###"Which news organizations publish the most “positive” stories and which ones publish the most negative ones?"

```
## # A tibble: 25 x 6
##    publisher number mediansubjectiv~ medianpolarity meansubjectivity
##    <chr>      <int>            <dbl>          <dbl>            <dbl>
##  1 Android ~      5            0.517         0.192             0.518
##  2 Atlantic      57            0.431         0.0979            0.427
##  3 Breitbart    132            0.418         0.0529            0.424
##  4 Business~     38            0.410         0.0723            0.410
##  5 Business~      6            0.418         0.121             0.433
##  6 Buzzfeed~     29            0.411         0.0496            0.409
##  7 Christia~      5            0.446         0.117             0.425
##  8 CNN           63            0.417         0.0722            0.416
##  9 Daily Ma~     11            0.456         0.145             0.464
## 10 Financia~      5            0.394         0.0645            0.385
## # ... with 15 more rows, and 1 more variable: meanpolarity <dbl>
```
…
