Final Report
…
Question Three

Did overall news organization sentiment go up or down over the sampled period?

The initial question here is purely observational, as we are looking for patterns in the data we have. Unfortunately, there are a lot of publishers in our dataset, more than a few thousand. Because of this, it is not effective for us to look at all news organizations over the course of our time period. Rather, it is better for us to look at a subset so that we can focus on depth and not breadth.

With that out of the way, this question can be answered with a plot of average sentiment scores for each month for each selected publisher. We created this plot by filtering our dataframe for the selected publishers, grouping by publisher and month, and then finding the mean polarity for each resultant row, outputting the below dataframe:

## # A tibble: 108 x 3
## # Groups:   publisher [9]
##    publisher month mean_polarity
##    <chr>     <fct>         <dbl>
##  1 Breitbart 1            0.0696
##  2 Breitbart 2            0.0734
##  3 Breitbart 3            0.0661
##  4 Breitbart 4            0.0686
##  5 Breitbart 5            0.0652
##  6 Breitbart 6            0.0576
##  7 Breitbart 7            0.0570
##  8 Breitbart 8            0.0628
##  9 Breitbart 9            0.0584
## 10 Breitbart 10           0.0671
## # ... with 98 more rows
…
As much as people like to flame the media for seeming biased, the most popular organizations seem to consistently hover just above the truly neutral 0 polarity.

Question Four

What is the optimal balance of multimedia to text to ensure maximum popularity (measured in number of shares or association)?

While this was initially one of the questions we planned on researching, as we began to do some exploratory data analysis we realized that this question was not in scope. Obtaining images was possible through the Newspaper3k package, but would have taken significantly longer to download. Further, there was no function to obtain the number of shares each article had, and we are not experienced enough with web crawling to do this. While this would be an interesting question to answer, it unfortunately turned out to not be possible given the class scope, our time restrictions, and our skill sets.

Question Five

Which news organizations publish the most positive stories and which ones publish the most negative ones

The first step was to create a summary table by publisher that looked at key statistics, such as mean polarity/subjectivity for a given publisher. One problem with such a large dataset was the enormous number of publishers that had low sample sizes compared to the better represented publishers in the group. We elected to look only at the publishers that had over 1,000 samples in the data in this analysis, for news outlets that had fewer stories could have overall publisher statistics that would look extreme compared to ones that had larger sample sizes. Our next step to answer the question that we posed would be to present which publishers out of this subset publish the most positive/negative stories, but after collecting all this data we can also answer which publishers put out the most subjective content versus objective.

## # A tibble: 25 x 6
##    publisher number mediansubjectiv~ medianpolarity meansubjectivity
##    <chr>      <int>            <dbl>          <dbl>            <dbl>
##  1 "Atlanti~   6765            0.431         0.0927            0.428
##  2 "Breitba~  19317            0.420         0.0654            0.419
##  3 "Busines~   5003            0.433         0.0873            0.430
##  4 "Buzzfee~   4342            0.418         0.0737            0.417
##  5 "CNN"      10448            0.421         0.0737            0.418
##  6 "Contact~   1350            0.462         0.127             0.460
##  7 "Daily M~   1550            0.436         0.0966            0.439
##  8 "Fox New~   4206            0.424         0.0800            0.421
##  9 "Guardia~   8423            0.430         0.0796            0.427
## 10 "Headlin~   1051            0.444         0.0950            0.443
## # ... with 15 more rows, and 1 more variable: meanpolarity <dbl>
…
